verilog_code/cpe300/lab5_code/exp3/proof/wave.vcd
$date
	Wed Sep 29 10:31:32 2021
$end
$version
	Icarus Verilog
$end
$timescale
	1ns
$end
$scope module tb $end
$var wire 4 ! wxyz [3:0] $end
$var reg 1 " a_in $end
$var reg 1 # clock $end
$var reg 1 $ reset $end
$var integer 32 % idx [31:0] $end
$scope module DUT $end
$var wire 1 " a_in $end
$var wire 1 # clock $end
$var wire 1 $ reset $end
$var reg 4 & n_state [3:0] $end
$var reg 4 ' state [3:0] $end
$var reg 4 ( wxyz [3:0] $end
$upscope $end
$upscope $end
$enddefinitions $end
#0
$dumpvars
b0 (
b0 '
b0 &
b0 %
0$
0#
0"
b0 !
$end
#5
b1 '
b1 &
1#
#10
0#
b1 %
#15
b10 '
b10 &
b1000 !
b1000 (
1#
#20
0#
b10 %
#25
b11 '
b11 &
b1100 !
b1100 (
1#
#30
0#
b11 %
#35
b100 '
b100 &
b100 !
b100 (
1#
#40
0#
b100 %
#45
b101 '
b101 &
b110 !
b110 (
1#
#50
0#
b101 %
#55
b110 '
b110 &
b10 !
b10 (
1#
#60
0#
b110 %
#65
b111 '
b111 &
b11 !
b11 (
1#
#70
0#
b111 %
#75
b1000 '
b1000 &
b1 !
b1 (
1#
#80
0#
b1000 %
#85
b1 '
b1 &
b1001 !
b1001 (
1#
#90
0#
b0 %
#95
b10 '
b10 &
b1000 !
b1000 (
1#
#100
0#
b1 %
#105
b11 '
b11 &
b1100 !
b1100 (
1#
#110
0#
b10 %
#115
b100 '
b100 &
b100 !
b100 (
1#
#120
0#
b11 %
#125
b101 '
b101 &
b110 !
b110 (
1#
#130
0#
b100 %
#135
b110 '
b110 &
b10 !
b10 (
1#
#140
0#
b101 %
#145
b111 '
b111 &
b11 !
b11 (
1#
#150
0#
b110 %
#155
b1000 '
b1000 &
b1 !
b1 (
1#
#160
0#
b111 %
#165
b1 '
b1 &
b1001 !
b1001 (
1#
#170
0#
b1000 %
#175
b10 '
b10 &
b1000 !
b1000 (
1#
#180
0#
1$
b1001 %
#185
b0 !
b0 (
b0 &
b0 '
1#
#190
0#
b0 %
1"
0$
#195
b1 '
b1 &
1#
#200
0#
b1 %
#205
b10 '
b10 &
b1001 !
b1001 (
1#
#210
0#
b10 %
#215
b11 '
b11 &
b1 !
b1 (
1#
#220
0#
b11 %
#225
b100 '
b100 &
b11 !
b11 (
1#
#230
0#
b100 %
#235
b101 '
b101 &
b10 !
b10 (
1#
#240
0#
b101 %
#245
b110 '
b110 &
b110 !
b110 (
1#
#250
0#
b110 %
#255
b111 '
b111 &
b100 !
b100 (
1#
#260
0#
b111 %
#265
b1000 '
b1000 &
b1100 !
b1100 (
1#
#270
0#
b1000 %
#275
b1 '
b1 &
b1000 !
b1000 (
1#
#280
0#
b0 %
#285
b10 '
b10 &
b1001 !
b1001 (
1#
#290
0#
b1 %
#295
b11 '
b11 &
b1 !
b1 (
1#
#300
0#
b10 %
#305
b100 '
b100 &
b11 !
b11 (
1#
#310
0#
b11 %
#315
b101 '
b101 &
b10 !
b10 (
1#
#320
0#
b100 %
#325
b110 '
b110 &
b110 !
b110 (
1#
#330
0#
b101 %
#335
b111 '
b111 &
b100 !
b100 (
1#
#340
0#
b110 %
#345
b1000 '
b1000 &
b1100 !
b1100 (
1#
#350
0#
b111 %
#355
b1 '
b1 &
b1000 !
b1000 (
1#
#360
0#
b1000 %
#365
b10 '
b10 &
b1001 !
b1001 (
1#
#370
0#
b1001 %
