older/verilog_code/cpe300/lab8_code/gcd_v3/wave.vcd
$date
	Wed Oct 20 23:32:24 2021
$end
$version
	Icarus Verilog
$end
$timescale
	1ns
$end
$scope module tb $end
$var wire 8 ! result [7:0] $end
$var wire 1 " done $end
$var reg 8 # A_input [7:0] $end
$var reg 8 $ B_input [7:0] $end
$var reg 1 % clock $end
$var reg 1 & reset $end
$var reg 1 ' start $end
$var integer 32 ( idx [31:0] $end
$var integer 32 ) seed [31:0] $end
$scope module GDP $end
$var wire 8 * A_input [7:0] $end
$var wire 8 + B_input [7:0] $end
$var wire 1 % clock $end
$var wire 1 " done $end
$var wire 1 & reset $end
$var wire 1 ' start $end
$var wire 8 , result [7:0] $end
$var wire 1 - n_is_0 $end
$var wire 1 . WE $end
$var wire 2 / WA [1:0] $end
$var wire 2 0 SH [1:0] $end
$var wire 1 1 RBE $end
$var wire 2 2 RBA [1:0] $end
$var wire 1 3 RAE $end
$var wire 2 4 RAA [1:0] $end
$var wire 1 5 OE $end
$var wire 2 6 IE [1:0] $end
$var wire 1 7 A_is_B $end
$var wire 1 8 A_gt_B $end
$var wire 3 9 ALU [2:0] $end
$scope module CU $end
$var wire 1 3 RAE $end
$var wire 1 1 RBE $end
$var wire 1 . WE $end
$var wire 1 % clock $end
$var wire 1 & reset $end
$var wire 1 ' start $end
$var wire 1 - n_is_0 $end
$var wire 2 : WA [1:0] $end
$var wire 2 ; SH [1:0] $end
$var wire 2 < RBA [1:0] $end
$var wire 2 = RAA [1:0] $end
$var wire 1 5 OE $end
$var wire 2 > IE [1:0] $end
$var wire 1 7 A_is_B $end
$var wire 1 8 A_gt_B $end
$var wire 3 ? ALU [2:0] $end
$var reg 3 @ n_state [2:0] $end
$var reg 3 A state [2:0] $end
$upscope $end
$scope module DP $end
$var wire 3 B ALU [2:0] $end
$var wire 8 C A_input [7:0] $end
$var wire 8 D B_input [7:0] $end
$var wire 2 E IE [1:0] $end
$var wire 1 5 OE $end
$var wire 2 F RAA [1:0] $end
$var wire 1 3 RAE $end
$var wire 2 G RBA [1:0] $end
$var wire 1 1 RBE $end
$var wire 2 H SH [1:0] $end
$var wire 2 I WA [1:0] $end
$var wire 1 . WE $end
$var wire 1 % clock $end
$var wire 8 J rf_port_B [7:0] $end
$var wire 8 K rf_port_A [7:0] $end
$var wire 8 L result [7:0] $end
$var wire 1 - n_is_0 $end
$var wire 8 M from_shifter [7:0] $end
$var wire 8 N from_mux [7:0] $end
$var wire 8 O from_alu [7:0] $end
$var wire 1 7 A_is_B $end
$var wire 1 8 A_gt_B $end
$var reg 8 P to_register_file [7:0] $end
$scope module AB $end
$var wire 8 Q alu_B [7:0] $end
$var wire 8 R alu_A [7:0] $end
$var wire 1 7 A_is_B $end
$var wire 1 8 A_gt_B $end
$upscope $end
$scope module comp1 $end
$var wire 8 S A_input [7:0] $end
$var wire 8 T B_input [7:0] $end
$var wire 2 U IE [1:0] $end
$var wire 8 V feedback [7:0] $end
$var reg 8 W from_mux [7:0] $end
$upscope $end
$scope module comp2 $end
$var wire 2 X RAA [1:0] $end
$var wire 1 3 RAE $end
$var wire 2 Y RBA [1:0] $end
$var wire 1 1 RBE $end
$var wire 2 Z WA [1:0] $end
$var wire 1 . WE $end
$var wire 1 % clock $end
$var wire 8 [ from_mux [7:0] $end
$var wire 8 \ port_B [7:0] $end
$var wire 8 ] port_A [7:0] $end
$upscope $end
$scope module comp3 $end
$var wire 3 ^ ALU [2:0] $end
$var wire 8 _ A_bus [7:0] $end
$var wire 8 ` B_bus [7:0] $end
$var reg 8 a from_alu [7:0] $end
$upscope $end
$scope module comp4 $end
$var wire 2 b SH [1:0] $end
$var wire 8 c from_alu [7:0] $end
$var reg 8 d from_shifter [7:0] $end
$upscope $end
$scope module comp5 $end
$var wire 1 5 OE $end
$var wire 8 e from_shifter [7:0] $end
$var reg 8 f result [7:0] $end
$upscope $end
$upscope $end
$upscope $end
$scope task getGCD $end
$upscope $end
$upscope $end
$enddefinitions $end
#0
$dumpvars
bz f
b0 e
b0 d
b0 c
b0 b
b0 a
b0 `
b0 _
b0 ^
b0 ]
b0 \
b0 [
b0 Z
b0 Y
b0 X
b0 W
b0 V
b0 U
b11010100 T
b0 S
b0 R
b0 Q
b0 P
b0 O
b0 N
b0 M
bz L
b0 K
b0 J
b0 I
b0 H
b0 G
b0 F
b0 E
b11010100 D
b0 C
b0 B
b0 A
b1 @
b0 ?
b0 >
b0 =
b0 <
b0 ;
b0 :
b0 9
08
17
b0 6
05
b0 4
03
b0 2
01
b0 0
b0 /
0.
1-
bz ,
b11010100 +
b0 *
b1101000100010001101110101111 )
b0 (
1'
0&
0%
b11010100 $
b0 #
0"
bz !
$end
#5
bx M
bx V
bx d
bx e
x7
x8
bx O
bx a
bx c
bx K
bx R
bx ]
bx _
13
1.
b110 @
b1 6
b1 >
b1 E
b1 U
b1 A
1%
#10
0%
#15
b0 M
b0 V
b0 d
b0 e
0.
17
08
b0 O
b0 a
b0 c
b0 P
b0 [
b0 K
b0 R
b0 ]
b0 _
1-
b0 N
b0 W
b0 !
b0 ,
b0 L
b0 f
b0 6
b0 >
b0 E
b0 U
1"
15
b110 A
1%
#20
b0 @
0%
1&
#25
b1 @
03
bz !
bz ,
bz L
bz f
0"
05
b0 A
1%
#30
0%
b1 #
b1 *
b1 C
b1 S
b10101101 $
b10101101 +
b10101101 D
b10101101 T
b1110000110010100000111000100100 )
0&
b1 (
#35
13
1.
b1 P
b1 [
b10 @
0-
b1 N
b1 W
b1 6
b1 >
b1 E
b1 U
b1 A
1%
#40
0%
#45
bx M
bx V
bx d
bx e
b10101101 P
b10101101 [
x7
x8
bx O
bx a
bx c
b11 @
b10101101 N
b10101101 W
b1 /
b1 :
b1 I
b1 Z
b1 4
b1 =
b1 F
b1 X
bx K
bx R
bx ]
bx _
b10 6
b10 >
b10 E
b10 U
b10 A
1%
#50
0%
#55
b10101101 J
b10101101 Q
b10101101 \
b10101101 `
b1 M
b1 V
b1 d
b1 e
0.
07
08
b1 O
b1 a
b1 c
b1 P
b1 [
11
b1 K
b1 R
b1 ]
b1 _
b101 @
0-
b1 N
b1 W
b0 /
b0 :
b0 I
b0 Z
b0 4
b0 =
b0 F
b0 X
b1 2
b1 <
b1 G
b1 Y
b0 6
b0 >
b0 E
b0 U
b11 A
1%
#60
0%
#65
b10101100 P
b10101100 [
b10101100 N
b10101100 W
18
b10101100 M
b10101100 V
b10101100 d
b10101100 e
b10101101 K
b10101101 R
b10101101 ]
b10101101 _
b1 J
b1 Q
b1 \
b1 `
b10101100 O
b10101100 a
b10101100 c
b11 @
1.
b1 /
b1 :
b1 I
b1 Z
b1 4
b1 =
b1 F
b1 X
b0 2
b0 <
b0 G
b0 Y
b101 9
b101 ?
b101 B
b101 ^
b101 A
1%
#70
0%
#75
0-
b1 P
b1 [
b1 N
b1 W
b1 M
b1 V
b1 d
b1 e
08
13
b10101100 J
b10101100 Q
b10101100 \
b10101100 `
b1 O
b1 a
b1 c
b1 K
b1 R
b1 ]
b1 _
b101 @
0.
b0 /
b0 :
b0 I
b0 Z
b0 4
b0 =
b0 F
b0 X
11
b1 2
b1 <
b1 G
b1 Y
b0 9
b0 ?
b0 B
b0 ^
b11 A
1%
#80
0%
#85
b10101011 P
b10101011 [
b10101011 N
b10101011 W
18
b10101011 M
b10101011 V
b10101011 d
b10101011 e
b10101100 K
b10101100 R
b10101100 ]
b10101100 _
b1 J
b1 Q
b1 \
b1 `
b10101011 O
b10101011 a
b10101011 c
b11 @
1.
b1 /
b1 :
b1 I
b1 Z
b1 4
b1 =
b1 F
b1 X
b0 2
b0 <
b0 G
b0 Y
b101 9
b101 ?
b101 B
b101 ^
b101 A
1%
#90
0%
#95
0-
b1 P
b1 [
b1 N
b1 W
b1 M
b1 V
b1 d
b1 e
08
13
b10101011 J
b10101011 Q
b10101011 \
b10101011 `
b1 O
b1 a
b1 c
b1 K
b1 R
b1 ]
b1 _
b101 @
0.
b0 /
b0 :
b0 I
b0 Z
b0 4
b0 =
b0 F
b0 X
11
b1 2
b1 <
b1 G
b1 Y
b0 9
b0 ?
b0 B
b0 ^
b11 A
1%
#100
0%
#105
b10101010 P
b10101010 [
b10101010 N
b10101010 W
18
b10101010 M
b10101010 V
b10101010 d
b10101010 e
b10101011 K
b10101011 R
b10101011 ]
b10101011 _
b1 J
b1 Q
b1 \
b1 `
b10101010 O
b10101010 a
b10101010 c
b11 @
1.
b1 /
b1 :
b1 I
b1 Z
b1 4
b1 =
b1 F
b1 X
b0 2
b0 <
b0 G
b0 Y
b101 9
b101 ?
b101 B
b101 ^
b101 A
1%
#110
0%
#115
0-
b1 P
b1 [
b1 N
b1 W
b1 M
b1 V
b1 d
b1 e
08
13
b10101010 J
b10101010 Q
b10101010 \
b10101010 `
b1 O
b1 a
b1 c
b1 K
b1 R
b1 ]
b1 _
b101 @
0.
b0 /
b0 :
b0 I
b0 Z
b0 4
b0 =
b0 F
b0 X
11
b1 2
b1 <
b1 G
b1 Y
b0 9
b0 ?
b0 B
b0 ^
b11 A
1%
#120
0%
#125
b10101001 P
b10101001 [
b10101001 N
b10101001 W
18
b10101001 M
b10101001 V
b10101001 d
b10101001 e
b10101010 K
b10101010 R
b10101010 ]
b10101010 _
b1 J
b1 Q
b1 \
b1 `
b10101001 O
b10101001 a
b10101001 c
b11 @
1.
b1 /
b1 :
b1 I
b1 Z
b1 4
b1 =
b1 F
b1 X
b0 2
b0 <
b0 G
b0 Y
b101 9
b101 ?
b101 B
b101 ^
b101 A
1%
#130
0%
#135
0-
b1 P
b1 [
b1 N
b1 W
b1 M
b1 V
b1 d
b1 e
08
13
b10101001 J
b10101001 Q
b10101001 \
b10101001 `
b1 O
b1 a
b1 c
b1 K
b1 R
b1 ]
b1 _
b101 @
0.
b0 /
b0 :
b0 I
b0 Z
b0 4
b0 =
b0 F
b0 X
11
b1 2
b1 <
b1 G
b1 Y
b0 9
b0 ?
b0 B
b0 ^
b11 A
1%
#140
0%
#145
b10101000 P
b10101000 [
b10101000 N
b10101000 W
18
b10101000 M
b10101000 V
b10101000 d
b10101000 e
b10101001 K
b10101001 R
b10101001 ]
b10101001 _
b1 J
b1 Q
b1 \
b1 `
b10101000 O
b10101000 a
b10101000 c
b11 @
1.
b1 /
b1 :
b1 I
b1 Z
b1 4
b1 =
b1 F
b1 X
b0 2
b0 <
b0 G
b0 Y
b101 9
b101 ?
b101 B
b101 ^
b101 A
1%
#150
0%
#155
0-
b1 P
b1 [
b1 N
b1 W
b1 M
b1 V
b1 d
b1 e
08
13
b10101000 J
b10101000 Q
b10101000 \
b10101000 `
b1 O
b1 a
b1 c
b1 K
b1 R
b1 ]
b1 _
b101 @
0.
b0 /
b0 :
b0 I
b0 Z
b0 4
b0 =
b0 F
b0 X
11
b1 2
b1 <
b1 G
b1 Y
b0 9
b0 ?
b0 B
b0 ^
b11 A
1%
#160
0%
#165
b10100111 P
b10100111 [
b10100111 N
b10100111 W
18
b10100111 M
b10100111 V
b10100111 d
b10100111 e
b10101000 K
b10101000 R
b10101000 ]
b10101000 _
b1 J
b1 Q
b1 \
b1 `
b10100111 O
b10100111 a
b10100111 c
b11 @
1.
b1 /
b1 :
b1 I
b1 Z
b1 4
b1 =
b1 F
b1 X
b0 2
b0 <
b0 G
b0 Y
b101 9
b101 ?
b101 B
b101 ^
b101 A
1%
#170
0%
#175
0-
b1 P
b1 [
b1 N
b1 W
b1 M
b1 V
b1 d
b1 e
08
13
b10100111 J
b10100111 Q
b10100111 \
b10100111 `
b1 O
b1 a
b1 c
b1 K
b1 R
b1 ]
b1 _
b101 @
0.
b0 /
b0 :
b0 I
b0 Z
b0 4
b0 =
b0 F
b0 X
11
b1 2
b1 <
b1 G
b1 Y
b0 9
b0 ?
b0 B
b0 ^
b11 A
1%
#180
0%
#185
b10100110 P
b10100110 [
b10100110 N
b10100110 W
18
b10100110 M
b10100110 V
b10100110 d
b10100110 e
b10100111 K
b10100111 R
b10100111 ]
b10100111 _
b1 J
b1 Q
b1 \
b1 `
b10100110 O
b10100110 a
b10100110 c
b11 @
1.
b1 /
b1 :
b1 I
b1 Z
b1 4
b1 =
b1 F
b1 X
b0 2
b0 <
b0 G
b0 Y
b101 9
b101 ?
b101 B
b101 ^
b101 A
1%
#190
0%
#195
0-
b1 P
b1 [
b1 N
b1 W
b1 M
b1 V
b1 d
b1 e
08
13
b10100110 J
b10100110 Q
b10100110 \
b10100110 `
b1 O
b1 a
b1 c
b1 K
b1 R
b1 ]
b1 _
b101 @
0.
b0 /
b0 :
b0 I
b0 Z
b0 4
b0 =
b0 F
b0 X
11
b1 2
b1 <
b1 G
b1 Y
b0 9
b0 ?
b0 B
b0 ^
b11 A
1%
#200
0%
#205
b10100101 P
b10100101 [
b10100101 N
b10100101 W
18
b10100101 M
b10100101 V
b10100101 d
b10100101 e
b10100110 K
b10100110 R
b10100110 ]
b10100110 _
b1 J
b1 Q
b1 \
b1 `
b10100101 O
b10100101 a
b10100101 c
b11 @
1.
b1 /
b1 :
b1 I
b1 Z
b1 4
b1 =
b1 F
b1 X
b0 2
b0 <
b0 G
b0 Y
b101 9
b101 ?
b101 B
b101 ^
b101 A
1%
#210
0%
#215
0-
b1 P
b1 [
b1 N
b1 W
b1 M
b1 V
b1 d
b1 e
08
13
b10100101 J
b10100101 Q
b10100101 \
b10100101 `
b1 O
b1 a
b1 c
b1 K
b1 R
b1 ]
b1 _
b101 @
0.
b0 /
b0 :
b0 I
b0 Z
b0 4
b0 =
b0 F
b0 X
11
b1 2
b1 <
b1 G
b1 Y
b0 9
b0 ?
b0 B
b0 ^
b11 A
1%
#220
0%
#225
b10100100 P
b10100100 [
b10100100 N
b10100100 W
18
b10100100 M
b10100100 V
b10100100 d
b10100100 e
b10100101 K
b10100101 R
b10100101 ]
b10100101 _
b1 J
b1 Q
b1 \
b1 `
b10100100 O
b10100100 a
b10100100 c
b11 @
1.
b1 /
b1 :
b1 I
b1 Z
b1 4
b1 =
b1 F
b1 X
b0 2
b0 <
b0 G
b0 Y
b101 9
b101 ?
b101 B
b101 ^
b101 A
1%
#230
0%
#235
0-
b1 P
b1 [
b1 N
b1 W
b1 M
b1 V
b1 d
b1 e
08
13
b10100100 J
b10100100 Q
b10100100 \
b10100100 `
b1 O
b1 a
b1 c
b1 K
b1 R
b1 ]
b1 _
b101 @
0.
b0 /
b0 :
b0 I
b0 Z
b0 4
b0 =
b0 F
b0 X
11
b1 2
b1 <
b1 G
b1 Y
b0 9
b0 ?
b0 B
b0 ^
b11 A
1%
#240
0%
#245
b10100011 P
b10100011 [
b10100011 N
b10100011 W
18
b10100011 M
b10100011 V
b10100011 d
b10100011 e
b10100100 K
b10100100 R
b10100100 ]
b10100100 _
b1 J
b1 Q
b1 \
b1 `
b10100011 O
b10100011 a
b10100011 c
b11 @
1.
b1 /
b1 :
b1 I
b1 Z
b1 4
b1 =
b1 F
b1 X
b0 2
b0 <
b0 G
b0 Y
b101 9
b101 ?
b101 B
b101 ^
b101 A
1%
#250
0%
#255
0-
b1 P
b1 [
b1 N
b1 W
b1 M
b1 V
b1 d
b1 e
08
13
b10100011 J
b10100011 Q
b10100011 \
b10100011 `
b1 O
b1 a
b1 c
b1 K
b1 R
b1 ]
b1 _
b101 @
0.
b0 /
b0 :
b0 I
b0 Z
b0 4
b0 =
b0 F
b0 X
11
b1 2
b1 <
b1 G
b1 Y
b0 9
b0 ?
b0 B
b0 ^
b11 A
1%
#260
0%
#265
b10100010 P
b10100010 [
b10100010 N
b10100010 W
18
b10100010 M
b10100010 V
b10100010 d
b10100010 e
b10100011 K
b10100011 R
b10100011 ]
b10100011 _
b1 J
b1 Q
b1 \
b1 `
b10100010 O
b10100010 a
b10100010 c
b11 @
1.
b1 /
b1 :
b1 I
b1 Z
b1 4
b1 =
b1 F
b1 X
b0 2
b0 <
b0 G
b0 Y
b101 9
b101 ?
b101 B
b101 ^
b101 A
1%
#270
0%
#275
0-
b1 P
b1 [
b1 N
b1 W
b1 M
b1 V
b1 d
b1 e
08
13
b10100010 J
b10100010 Q
b10100010 \
b10100010 `
b1 O
b1 a
b1 c
b1 K
b1 R
b1 ]
b1 _
b101 @
0.
b0 /
b0 :
b0 I
b0 Z
b0 4
b0 =
b0 F
b0 X
11
b1 2
b1 <
b1 G
b1 Y
b0 9
b0 ?
b0 B
b0 ^
b11 A
1%
#280
0%
#285
b10100001 P
b10100001 [
b10100001 N
b10100001 W
18
b10100001 M
b10100001 V
b10100001 d
b10100001 e
b10100010 K
b10100010 R
b10100010 ]
b10100010 _
b1 J
b1 Q
b1 \
b1 `
b10100001 O
b10100001 a
b10100001 c
b11 @
1.
b1 /
b1 :
b1 I
b1 Z
b1 4
b1 =
b1 F
b1 X
b0 2
b0 <
b0 G
b0 Y
b101 9
b101 ?
b101 B
b101 ^
b101 A
1%
#290
0%
#295
0-
b1 P
b1 [
b1 N
b1 W
b1 M
b1 V
b1 d
b1 e
08
13
b10100001 J
b10100001 Q
b10100001 \
b10100001 `
b1 O
b1 a
b1 c
b1 K
b1 R
b1 ]
b1 _
b101 @
0.
b0 /
b0 :
b0 I
b0 Z
b0 4
b0 =
b0 F
b0 X
11
b1 2
b1 <
b1 G
b1 Y
b0 9
b0 ?
b0 B
b0 ^
b11 A
1%
#300
0%
#305
b10100000 P
b10100000 [
b10100000 N
b10100000 W
18
b10100000 M
b10100000 V
b10100000 d
b10100000 e
b10100001 K
b10100001 R
b10100001 ]
b10100001 _
b1 J
b1 Q
b1 \
b1 `
b10100000 O
b10100000 a
b10100000 c
b11 @
1.
b1 /
b1 :
b1 I
b1 Z
b1 4
b1 =
b1 F
b1 X
b0 2
b0 <
b0 G
b0 Y
b101 9
b101 ?
b101 B
b101 ^
b101 A
1%
#310
0%
#315
0-
b1 P
b1 [
b1 N
b1 W
b1 M
b1 V
b1 d
b1 e
08
13
b10100000 J
b10100000 Q
b10100000 \
b10100000 `
b1 O
b1 a
b1 c
b1 K
b1 R
b1 ]
b1 _
b101 @
0.
b0 /
b0 :
b0 I
b0 Z
b0 4
b0 =
b0 F
b0 X
11
b1 2
b1 <
b1 G
b1 Y
b0 9
b0 ?
b0 B
b0 ^
b11 A
1%
#320
0%
#325
b10011111 P
b10011111 [
b10011111 N
b10011111 W
18
b10011111 M
b10011111 V
b10011111 d
b10011111 e
b10100000 K
b10100000 R
b10100000 ]
b10100000 _
b1 J
b1 Q
b1 \
b1 `
b10011111 O
b10011111 a
b10011111 c
b11 @
1.
b1 /
b1 :
b1 I
b1 Z
b1 4
b1 =
b1 F
b1 X
b0 2
b0 <
b0 G
b0 Y
b101 9
b101 ?
b101 B
b101 ^
b101 A
1%
#330
0%
#335
0-
b1 P
b1 [
b1 N
b1 W
b1 M
b1 V
b1 d
b1 e
08
13
b10011111 J
b10011111 Q
b10011111 \
b10011111 `
b1 O
b1 a
b1 c
b1 K
b1 R
b1 ]
b1 _
b101 @
0.
b0 /
b0 :
b0 I
b0 Z
b0 4
b0 =
b0 F
b0 X
11
b1 2
b1 <
b1 G
b1 Y
b0 9
b0 ?
b0 B
b0 ^
b11 A
1%
#340
0%
#345
b10011110 P
b10011110 [
b10011110 N
b10011110 W
18
b10011110 M
b10011110 V
b10011110 d
b10011110 e
b10011111 K
b10011111 R
b10011111 ]
b10011111 _
b1 J
b1 Q
b1 \
b1 `
b10011110 O
b10011110 a
b10011110 c
b11 @
1.
b1 /
b1 :
b1 I
b1 Z
b1 4
b1 =
b1 F
b1 X
b0 2
b0 <
b0 G
b0 Y
b101 9
b101 ?
b101 B
b101 ^
b101 A
1%
#350
0%
#355
0-
b1 P
b1 [
b1 N
b1 W
b1 M
b1 V
b1 d
b1 e
08
13
b10011110 J
b10011110 Q
b10011110 \
b10011110 `
b1 O
b1 a
b1 c
b1 K
b1 R
b1 ]
b1 _
b101 @
0.
b0 /
b0 :
b0 I
b0 Z
b0 4
b0 =
b0 F
b0 X
11
b1 2
b1 <
b1 G
b1 Y
b0 9
b0 ?
b0 B
b0 ^
b11 A
1%
#360
0%
#365
b10011101 P
b10011101 [
b10011101 N
b10011101 W
18
b10011101 M
b10011101 V
b10011101 d
b10011101 e
b10011110 K
b10011110 R
b10011110 ]
b10011110 _
b1 J
b1 Q
b1 \
b1 `
b10011101 O
b10011101 a
b10011101 c
b11 @
1.
b1 /
b1 :
b1 I
b1 Z
b1 4
b1 =
b1 F
b1 X
b0 2
b0 <
b0 G
b0 Y
b101 9
b101 ?
b101 B
b101 ^
b101 A
1%
#370
0%
#375
0-
b1 P
b1 [
b1 N
b1 W
b1 M
b1 V
b1 d
b1 e
08
13
b10011101 J
b10011101 Q
b10011101 \
b10011101 `
b1 O
b1 a
b1 c
b1 K
b1 R
b1 ]
b1 _
b101 @
0.
b0 /
b0 :
b0 I
b0 Z
b0 4
b0 =
b0 F
b0 X
11
b1 2
b1 <
b1 G
b1 Y
b0 9
b0 ?
b0 B
b0 ^
b11 A
1%
#380
0%
#385
b10011100 P
b10011100 [
b10011100 N
b10011100 W
18
b10011100 M
b10011100 V
b10011100 d
b10011100 e
b10011101 K
b10011101 R
b10011101 ]
b10011101 _
b1 J
b1 Q
b1 \
b1 `
b10011100 O
b10011100 a
b10011100 c
b11 @
1.
b1 /
b1 :
b1 I
b1 Z
b1 4
b1 =
b1 F
b1 X
b0 2
b0 <
b0 G
b0 Y
b101 9
b101 ?
b101 B
b101 ^
b101 A
1%
#390
0%
#395
0-
b1 P
b1 [
b1 N
b1 W
b1 M
b1 V
b1 d
b1 e
08
13
b10011100 J
b10011100 Q
b10011100 \
b10011100 `
b1 O
b1 a
b1 c
b1 K
b1 R
b1 ]
b1 _
b101 @
0.
b0 /
b0 :
b0 I
b0 Z
b0 4
b0 =
b0 F
b0 X
11
b1 2
b1 <
b1 G
b1 Y
b0 9
b0 ?
b0 B
b0 ^
b11 A
1%
#400
0%
#405
b10011011 P
b10011011 [
b10011011 N
b10011011 W
18
b10011011 M
b10011011 V
b10011011 d
b10011011 e
b10011100 K
b10011100 R
b10011100 ]
b10011100 _
b1 J
b1 Q
b1 \
b1 `
b10011011 O
b10011011 a
b10011011 c
b11 @
1.
b1 /
b1 :
b1 I
b1 Z
b1 4
b1 =
b1 F
b1 X
b0 2
b0 <
b0 G
b0 Y
b101 9
b101 ?
b101 B
b101 ^
b101 A
1%
#410
0%
#415
0-
b1 P
b1 [
b1 N
b1 W
b1 M
b1 V
b1 d
b1 e
08
13
b10011011 J
b10011011 Q
b10011011 \
b10011011 `
b1 O
b1 a
b1 c
b1 K
b1 R
b1 ]
b1 _
b101 @
0.
b0 /
b0 :
b0 I
b0 Z
b0 4
b0 =
b0 F
b0 X
11
b1 2
b1 <
b1 G
b1 Y
b0 9
b0 ?
b0 B
b0 ^
b11 A
1%
#420
0%
#425
b10011010 P
b10011010 [
b10011010 N
b10011010 W
18
b10011010 M
b10011010 V
b10011010 d
b10011010 e
b10011011 K
b10011011 R
b10011011 ]
b10011011 _
b1 J
b1 Q
b1 \
b1 `
b10011010 O
b10011010 a
b10011010 c
b11 @
1.
b1 /
b1 :
b1 I
b1 Z
b1 4
b1 =
b1 F
b1 X
b0 2
b0 <
b0 G
b0 Y
b101 9
b101 ?
b101 B
b101 ^
b101 A
1%
#430
0%
#435
0-
b1 P
b1 [
b1 N
b1 W
b1 M
b1 V
b1 d
b1 e
08
13
b10011010 J
b10011010 Q
b10011010 \
b10011010 `
b1 O
b1 a
b1 c
b1 K
b1 R
b1 ]
b1 _
b101 @
0.
b0 /
b0 :
b0 I
b0 Z
b0 4
b0 =
b0 F
b0 X
11
b1 2
b1 <
b1 G
b1 Y
b0 9
b0 ?
b0 B
b0 ^
b11 A
1%
#440
0%
#445
b10011001 P
b10011001 [
b10011001 N
b10011001 W
18
b10011001 M
b10011001 V
b10011001 d
b10011001 e
b10011010 K
b10011010 R
b10011010 ]
b10011010 _
b1 J
b1 Q
b1 \
b1 `
b10011001 O
b10011001 a
b10011001 c
b11 @
1.
b1 /
b1 :
b1 I
b1 Z
b1 4
b1 =
b1 F
b1 X
b0 2
b0 <
b0 G
b0 Y
b101 9
b101 ?
b101 B
b101 ^
b101 A
1%
#450
0%
#455
0-
b1 P
b1 [
b1 N
b1 W
b1 M
b1 V
b1 d
b1 e
08
13
b10011001 J
b10011001 Q
b10011001 \
b10011001 `
b1 O
b1 a
b1 c
b1 K
b1 R
b1 ]
b1 _
b101 @
0.
b0 /
b0 :
b0 I
b0 Z
b0 4
b0 =
b0 F
b0 X
11
b1 2
b1 <
b1 G
b1 Y
b0 9
b0 ?
b0 B
b0 ^
b11 A
1%
#460
0%
#465
b10011000 P
b10011000 [
b10011000 N
b10011000 W
18
b10011000 M
b10011000 V
b10011000 d
b10011000 e
b10011001 K
b10011001 R
b10011001 ]
b10011001 _
b1 J
b1 Q
b1 \
b1 `
b10011000 O
b10011000 a
b10011000 c
b11 @
1.
b1 /
b1 :
b1 I
b1 Z
b1 4
b1 =
b1 F
b1 X
b0 2
b0 <
b0 G
b0 Y
b101 9
b101 ?
b101 B
b101 ^
b101 A
1%
#470
0%
#475
0-
b1 P
b1 [
b1 N
b1 W
b1 M
b1 V
b1 d
b1 e
08
13
b10011000 J
b10011000 Q
b10011000 \
b10011000 `
b1 O
b1 a
b1 c
b1 K
b1 R
b1 ]
b1 _
b101 @
0.
b0 /
b0 :
b0 I
b0 Z
b0 4
b0 =
b0 F
b0 X
11
b1 2
b1 <
b1 G
b1 Y
b0 9
b0 ?
b0 B
b0 ^
b11 A
1%
#480
0%
#485
b10010111 P
b10010111 [
b10010111 N
b10010111 W
18
b10010111 M
b10010111 V
b10010111 d
b10010111 e
b10011000 K
b10011000 R
b10011000 ]
b10011000 _
b1 J
b1 Q
b1 \
b1 `
b10010111 O
b10010111 a
b10010111 c
b11 @
1.
b1 /
b1 :
b1 I
b1 Z
b1 4
b1 =
b1 F
b1 X
b0 2
b0 <
b0 G
b0 Y
b101 9
b101 ?
b101 B
b101 ^
b101 A
1%
#490
0%
#495
0-
b1 P
b1 [
b1 N
b1 W
b1 M
b1 V
b1 d
b1 e
08
13
b10010111 J
b10010111 Q
b10010111 \
b10010111 `
b1 O
b1 a
b1 c
b1 K
b1 R
b1 ]
b1 _
b101 @
0.
b0 /
b0 :
b0 I
b0 Z
b0 4
b0 =
b0 F
b0 X
11
b1 2
b1 <
b1 G
b1 Y
b0 9
b0 ?
b0 B
b0 ^
b11 A
1%
#500
0%
#505
b10010110 P
b10010110 [
b10010110 N
b10010110 W
18
b10010110 M
b10010110 V
b10010110 d
b10010110 e
b10010111 K
b10010111 R
b10010111 ]
b10010111 _
b1 J
b1 Q
b1 \
b1 `
b10010110 O
b10010110 a
b10010110 c
b11 @
1.
b1 /
b1 :
b1 I
b1 Z
b1 4
b1 =
b1 F
b1 X
b0 2
b0 <
b0 G
b0 Y
b101 9
b101 ?
b101 B
b101 ^
b101 A
1%
#510
0%
#515
0-
b1 P
b1 [
b1 N
b1 W
b1 M
b1 V
b1 d
b1 e
08
13
b10010110 J
b10010110 Q
b10010110 \
b10010110 `
b1 O
b1 a
b1 c
b1 K
b1 R
b1 ]
b1 _
b101 @
0.
b0 /
b0 :
b0 I
b0 Z
b0 4
b0 =
b0 F
b0 X
11
b1 2
b1 <
b1 G
b1 Y
b0 9
b0 ?
b0 B
b0 ^
b11 A
1%
#520
0%
#525
b10010101 P
b10010101 [
b10010101 N
b10010101 W
18
b10010101 M
b10010101 V
b10010101 d
b10010101 e
b10010110 K
b10010110 R
b10010110 ]
b10010110 _
b1 J
b1 Q
b1 \
b1 `
b10010101 O
b10010101 a
b10010101 c
b11 @
1.
b1 /
b1 :
b1 I
b1 Z
b1 4
b1 =
b1 F
b1 X
b0 2
b0 <
b0 G
b0 Y
b101 9
b101 ?
b101 B
b101 ^
b101 A
1%
#530
0%
#535
0-
b1 P
b1 [
b1 N
b1 W
b1 M
b1 V
b1 d
b1 e
08
13
b10010101 J
b10010101 Q
b10010101 \
b10010101 `
b1 O
b1 a
b1 c
b1 K
b1 R
b1 ]
b1 _
b101 @
0.
b0 /
b0 :
b0 I
b0 Z
b0 4
b0 =
b0 F
b0 X
11
b1 2
b1 <
b1 G
b1 Y
b0 9
b0 ?
b0 B
b0 ^
b11 A
1%
#540
0%
#545
b10010100 P
b10010100 [
b10010100 N
b10010100 W
18
b10010100 M
b10010100 V
b10010100 d
b10010100 e
b10010101 K
b10010101 R
b10010101 ]
b10010101 _
b1 J
b1 Q
b1 \
b1 `
b10010100 O
b10010100 a
b10010100 c
b11 @
1.
b1 /
b1 :
b1 I
b1 Z
b1 4
b1 =
b1 F
b1 X
b0 2
b0 <
b0 G
b0 Y
b101 9
b101 ?
b101 B
b101 ^
b101 A
1%
#550
0%
#555
0-
b1 P
b1 [
b1 N
b1 W
b1 M
b1 V
b1 d
b1 e
08
13
b10010100 J
b10010100 Q
b10010100 \
b10010100 `
b1 O
b1 a
b1 c
b1 K
b1 R
b1 ]
b1 _
b101 @
0.
b0 /
b0 :
b0 I
b0 Z
b0 4
b0 =
b0 F
b0 X
11
b1 2
b1 <
b1 G
b1 Y
b0 9
b0 ?
b0 B
b0 ^
b11 A
1%
#560
0%
#565
b10010011 P
b10010011 [
b10010011 N
b10010011 W
18
b10010011 M
b10010011 V
b10010011 d
b10010011 e
b10010100 K
b10010100 R
b10010100 ]
b10010100 _
b1 J
b1 Q
b1 \
b1 `
b10010011 O
b10010011 a
b10010011 c
b11 @
1.
b1 /
b1 :
b1 I
b1 Z
b1 4
b1 =
b1 F
b1 X
b0 2
b0 <
b0 G
b0 Y
b101 9
b101 ?
b101 B
b101 ^
b101 A
1%
#570
0%
