verilog_code/cpe300/lab4_code/pre2/wave.vcd
$date
	Tue Sep 21 23:04:43 2021
$end
$version
	Icarus Verilog
$end
$timescale
	1ns
$end
$scope module tb $end
$var wire 1 ! out_qn $end
$var wire 1 " out_q $end
$var reg 1 # clear_n $end
$var reg 1 $ clk $end
$var reg 1 % in_j $end
$var reg 1 & in_k $end
$var integer 32 ' idx [31:0] $end
$var integer 32 ( seed [31:0] $end
$scope module DUT $end
$var wire 1 # clearN $end
$var wire 1 $ clock $end
$var wire 1 % inJ $end
$var wire 1 & inK $end
$var wire 1 ! outQn $end
$var reg 1 " outQ $end
$upscope $end
$scope task disp $end
$var reg 1 ) clear_n $end
$var reg 1 * clk $end
$var reg 1 + in_j $end
$var reg 1 , in_k $end
$var reg 1 - out_q $end
$var reg 1 . out_qn $end
$upscope $end
$upscope $end
$enddefinitions $end
#0
$dumpvars
x.
x-
x,
x+
x*
x)
b10110 (
bx '
0&
0%
0$
0#
0"
1!
$end
#1
1&
b1101111100110110011010101010100 (
b0 '
1#
#5
1$
#6
0&
1.
0-
1,
0+
1)
1*
b11101111010100010101000001000010 (
b1 '
#10
0$
#11
1&
b10011101101101010101010001100000 (
b10 '
#15
1$
#16
1%
b1010111111011111101000100101110 (
b11 '
#20
0$
#21
b10001111101001001100001000101100 (
b100 '
#25
0!
1"
1$
#26
0&
0.
1-
1+
b10000010000001000110111011011010 (
b101 '
#30
0$
#31
1&
0%
b11010000101111110100101010111000 (
b110 '
#35
1!
0"
1$
#36
0&
1%
1.
0-
0+
b1101010010101001101010101000110 (
b111 '
#40
0$
#41
1&
0%
b11001111101010111101000000100 (
b1000 '
#45
1$
#46
1%
b10101111111011110111000001110010 (
b1001 '
#50
0$
#51
0&
b10101010010111101001110000010000 (
b1010 '
#55
0!
1"
1$
#56
1&
0.
1-
0,
1+
b1001010100101110110110001011110 (
b1011 '
#60
0$
#61
0%
b1000110100001001011110011011100 (
b1100 '
#65
1!
0"
1$
#66
1%
1.
0-
1,
0+
b1110101111100001011010100001010 (
b1101 '
#70
0$
#71
0&
b101010011100001010100001101000 (
b1110 '
#75
0!
1"
1$
#76
0%
0.
1-
0,
1+
b11111101011010111111011001110110 (
b1111 '
#80
0$
#81
b11111010011101011110101010110100 (
b10000 '
#85
1$
#86
1&
0+
b11010100111100101001110010100010 (
b10001 '
#90
0$
#91
1%
b1111110101111101100111111000000 (
b10010 '
#95
1!
0"
1$
#96
0&
0%
1.
0-
1,
1+
b10101010010100101101001110001110 (
b10011 '
#100
0$
#101
1&
1%
b10110101100110000110001110001100 (
b10100 '
#105
0!
1"
1$
#106
0&
0.
1-
b11011011011010111000011100111010 (
b10101 '
#110
0$
#111
0%
b10001000011111100111001000011000 (
b10110 '
#115
1$
#116
0,
0+
b11111101000110000110001110100110 (
b10111 '
#120
0$
#121
1&
b101111111001111000011101100100 (
b11000 '
#125
1!
0"
1$
#126
1%
1.
0-
1,
b11011110110111011101010011010010 (
b11001 '
#130
0$
#131
0%
b10001110100001110111101110000 (
b11010 '
#135
1$
#136
0&
1%
b10110111010101010000011010111110 (
b11011 '
#140
0$
#141
0%
b10100111000010101011011000111100 (
b11100 '
#145
1$
#146
0,
b11100101010101111110010101101010 (
b11101 '
#150
0$
#151
b10110011010000111010011111001000 (
b11110 '
#155
1$
#156
1&
b1110001111011010001110011010110 (
b11111 '
#160
0$
#161
b11011011110101010101000000010100 (
0#
b0 '
#165
1$
#166
1%
1,
0)
b111110111101000001100100000010 (
b1 '
#170
0$
#171
0&
b1101001010011111111101100100000 (
b10 '
#175
1$
#176
1&
0,
1+
b10001110100100010000010111101110 (
b11 '
#180
0$
#181
0%
b10111111110001101011010011101100 (
b100 '
#185
1$
#186
0&
1,
0+
b1001111010110001100111110011010 (
b101 '
#190
0$
#191
1&
b11011001110110110100100101111000 (
b110 '
#195
1$
#196
0&
1%
b1011001001111010010001000000110 (
b111 '
#200
0$
#201
b1000 '
