verilog_code/cpe300/lab9_code/theoretical/wave.vcd
$date
	Wed Oct 27 11:15:44 2021
$end
$version
	Icarus Verilog
$end
$timescale
	1ns
$end
$scope module testbench $end
$var wire 32 ! writedata [31:0] $end
$var wire 1 " memwrite $end
$var wire 32 # dataadr [31:0] $end
$var reg 1 $ access_complete $end
$var reg 1 % clk $end
$var reg 32 & instr_dummy [31:0] $end
$var reg 1 ' printing $end
$var reg 1 ( reset $end
$var reg 1 ) sim_success $end
$var integer 32 * idx [31:0] $end
$var integer 32 + play_time [31:0] $end
$scope module DUT $end
$var wire 1 % clk $end
$var wire 1 ( reset $end
$var wire 32 , writedata [31:0] $end
$var wire 32 - readdata [31:0] $end
$var wire 32 . pc [31:0] $end
$var wire 1 " memwrite $end
$var wire 32 / instr [31:0] $end
$var wire 32 0 dataadr [31:0] $end
$scope module dmem $end
$var wire 1 % clk $end
$var wire 32 1 rd [31:0] $end
$var wire 1 " we $end
$var wire 32 2 wd [31:0] $end
$var wire 32 3 a [31:0] $end
$upscope $end
$scope module imem $end
$var wire 6 4 a [5:0] $end
$var wire 32 5 rd [31:0] $end
$upscope $end
$scope module mips $end
$var wire 1 % clk $end
$var wire 32 6 instr [31:0] $end
$var wire 32 7 readdata [31:0] $end
$var wire 1 ( reset $end
$var wire 1 8 zero $end
$var wire 32 9 writedata [31:0] $end
$var wire 1 : regwrite $end
$var wire 1 ; regdst $end
$var wire 1 < pcsrc $end
$var wire 32 = pc [31:0] $end
$var wire 1 " memwrite $end
$var wire 1 > memtoreg $end
$var wire 1 ? jump $end
$var wire 1 @ alusrc $end
$var wire 32 A aluout [31:0] $end
$var wire 3 B alucontrol [2:0] $end
$scope module CU $end
$var wire 6 C funct [5:0] $end
$var wire 6 D op [5:0] $end
$var wire 1 < pcsrc $end
$var wire 1 8 zero $end
$var wire 1 : regwrite $end
$var wire 1 ; regdst $end
$var wire 1 " memwrite $end
$var wire 1 > memtoreg $end
$var wire 1 ? jump $end
$var wire 1 E branch $end
$var wire 1 @ alusrc $end
$var wire 2 F aluop [1:0] $end
$var wire 3 G alucontrol [2:0] $end
$scope module AD $end
$var wire 6 H funct [5:0] $end
$var wire 2 I aluop [1:0] $end
$var reg 3 J alucontrol [2:0] $end
$upscope $end
$scope module MD $end
$var wire 6 K op [5:0] $end
$var wire 1 : regwrite $end
$var wire 1 ; regdst $end
$var wire 1 " memwrite $end
$var wire 1 > memtoreg $end
$var wire 1 ? jump $end
$var wire 1 E branch $end
$var wire 1 @ alusrc $end
$var wire 2 L aluop [1:0] $end
$var reg 9 M controls [8:0] $end
$upscope $end
$upscope $end
$scope module DP $end
$var wire 3 N alucontrol [2:0] $end
$var wire 1 @ alusrc $end
$var wire 1 % clk $end
$var wire 32 O instr [31:0] $end
$var wire 1 ? jump $end
$var wire 1 > memtoreg $end
$var wire 1 < pcsrc $end
$var wire 32 P readdata [31:0] $end
$var wire 1 ; regdst $end
$var wire 1 : regwrite $end
$var wire 1 ( reset $end
$var wire 1 8 zero $end
$var wire 5 Q writereg [4:0] $end
$var wire 32 R writedata [31:0] $end
$var wire 32 S srcb [31:0] $end
$var wire 32 T srca [31:0] $end
$var wire 32 U signimmsh [31:0] $end
$var wire 32 V signimm [31:0] $end
$var wire 32 W result [31:0] $end
$var wire 32 X pcplus4 [31:0] $end
$var wire 32 Y pcnextbr [31:0] $end
$var wire 32 Z pcnext [31:0] $end
$var wire 32 [ pcbranch [31:0] $end
$var wire 32 \ pc [31:0] $end
$var wire 32 ] aluout [31:0] $end
$scope module ALU $end
$var wire 3 ^ sel [2:0] $end
$var wire 32 _ b [31:0] $end
$var wire 32 ` a [31:0] $end
$var reg 32 a out [31:0] $end
$var reg 1 8 zero $end
$upscope $end
$scope module RF $end
$var wire 1 % clk $end
$var wire 5 b ra1 [4:0] $end
$var wire 5 c ra2 [4:0] $end
$var wire 1 : we3 $end
$var wire 32 d wd3 [31:0] $end
$var wire 5 e wa3 [4:0] $end
$var wire 32 f rd2 [31:0] $end
$var wire 32 g rd1 [31:0] $end
$upscope $end
$scope module SE $end
$var wire 16 h a [15:0] $end
$var wire 32 i y [31:0] $end
$upscope $end
$scope module immsh $end
$var wire 32 j a [31:0] $end
$var wire 32 k y [31:0] $end
$upscope $end
$scope module pcadd1 $end
$var wire 32 l b [31:0] $end
$var wire 32 m y [31:0] $end
$var wire 32 n a [31:0] $end
$upscope $end
$scope module pcadd2 $end
$var wire 32 o a [31:0] $end
$var wire 32 p b [31:0] $end
$var wire 32 q y [31:0] $end
$upscope $end
$scope module pcbrmux $end
$var wire 32 r d0 [31:0] $end
$var wire 32 s d1 [31:0] $end
$var wire 1 < s $end
$var wire 32 t y [31:0] $end
$upscope $end
$scope module pcmux $end
$var wire 32 u d0 [31:0] $end
$var wire 32 v d1 [31:0] $end
$var wire 1 ? s $end
$var wire 32 w y [31:0] $end
$upscope $end
$scope module pcreg $end
$var wire 1 % clk $end
$var wire 32 x d [31:0] $end
$var wire 1 ( reset $end
$var reg 32 y q [31:0] $end
$upscope $end
$scope module resmux $end
$var wire 32 z d0 [31:0] $end
$var wire 32 { d1 [31:0] $end
$var wire 1 > s $end
$var wire 32 | y [31:0] $end
$upscope $end
$scope module srcbmux $end
$var wire 32 } d0 [31:0] $end
$var wire 32 ~ d1 [31:0] $end
$var wire 1 @ s $end
$var wire 32 !" y [31:0] $end
$upscope $end
$scope module wrmux $end
$var wire 5 "" d0 [4:0] $end
$var wire 5 #" d1 [4:0] $end
$var wire 1 ; s $end
$var wire 5 $" y [4:0] $end
$upscope $end
$upscope $end
$upscope $end
$upscope $end
$upscope $end
$enddefinitions $end
#0
$dumpvars
b10 $"
b0 #"
b10 ""
b101 !"
b101 ~
bx }
b101 |
bx {
b101 z
b0 y
b100 x
b100 w
b10000000000000010100 v
b100 u
b100 t
b11000 s
b100 r
b11000 q
b10100 p
b100 o
b0 n
b100 m
b100 l
b10100 k
b101 j
b101 i
b101 h
b0 g
bx f
b10 e
b101 d
b10 c
b0 b
b101 a
b0 `
b101 _
b10 ^
b101 ]
b0 \
b11000 [
b100 Z
b100 Y
b100 X
b101 W
b101 V
b10100 U
b0 T
b101 S
bx R
b10 Q
bx P
b100000000000100000000000000101 O
b10 N
b101000000 M
b0 L
b1000 K
b10 J
b0 I
b101 H
b10 G
b0 F
0E
b1000 D
b101 C
b10 B
b101 A
1@
0?
0>
b0 =
0<
0;
1:
bx 9
08
bx 7
b100000000000100000000000000101 6
b100000000000100000000000000101 5
b0 4
b101 3
bx 2
bx 1
b101 0
b100000000000100000000000000101 /
b0 .
bx -
bx ,
b0 +
b1 *
0)
1(
0'
bx &
1%
0$
b101 #
0"
bx !
$end
#1
b100000000000100000000000000101 &
#22
0(
1'
#50
0%
#51
b10 *
#100
b1100 W
b1100 d
b1100 |
b1100 #
b1100 0
b1100 3
b1100 A
b1100 ]
b1100 a
b1100 z
b11 Q
b11 e
b11 $"
b110000 U
b110000 k
b110000 p
b1100 S
b1100 _
b1100 !"
b1000 Z
b1000 w
b1000 x
b1100 C
b1100 H
b11000000000000110000 v
b11 c
b11 ""
b1100 V
b1100 i
b1100 j
b1100 ~
b1100 h
bx !
bx ,
bx 2
bx 9
bx R
bx f
bx }
b1000 Y
b1000 t
b1000 u
b100000000000110000000000001100 /
b100000000000110000000000001100 5
b100000000000110000000000001100 6
b100000000000110000000000001100 O
b1 4
b111000 [
b111000 q
b111000 s
b1000 X
b1000 m
b1000 o
b1000 r
b100 .
b100 =
b100 \
b100 n
b100 y
1%
#101
b100000000000110000000000001100 &
#150
0%
#151
b11 *
#200
b11 W
b11 d
b11 |
b11 #
b11 0
b11 3
b11 A
b11 ]
b11 a
b11 z
b1100 T
b1100 `
b1100 g
b111 Q
b111 e
b111 $"
b1111111111111111111111011100 U
b1111111111111111111111011100 k
b1111111111111111111111011100 p
b11111111111111111111111111110111 S
b11111111111111111111111111110111 _
b11111111111111111111111111110111 !"
b1100 Z
b1100 w
b1100 x
b110111 C
b110111 H
b1100111111111111111011100 v
b11 b
b111 c
b111 ""
b11111 #"
b11111111111111111111111111110111 V
b11111111111111111111111111110111 i
b11111111111111111111111111110111 j
b11111111111111111111111111110111 ~
b1111111111110111 h
bx !
bx ,
bx 2
bx 9
bx R
bx f
bx }
b1100 Y
b1100 t
b1100 u
b100000011001111111111111110111 /
b100000011001111111111111110111 5
b100000011001111111111111110111 6
b100000011001111111111111110111 O
b10 4
b1111111111111111111111101000 [
b1111111111111111111111101000 q
b1111111111111111111111101000 s
b1100 X
b1100 m
b1100 o
b1100 r
b1000 .
b1000 =
b1000 \
b1000 n
b1000 y
1%
#201
b100000011001111111111111110111 &
#250
0%
#251
b100 *
#300
b1 B
b1 G
b1 J
b1 N
b1 ^
1;
0@
b10 F
b10 I
b10 L
b110000010 M
b111 W
b111 d
b111 |
b111 #
b111 0
b111 3
b111 A
b111 ]
b111 a
b111 z
b11 T
b11 `
b11 g
b100 Q
b100 e
b100 $"
b1000000010010100 U
b1000000010010100 k
b1000000010010100 p
b101 S
b101 _
b101 !"
b10000 Z
b10000 w
b10000 x
b0 D
b0 K
b100101 C
b100101 H
b11100010001000000010010100 v
b111 b
b10 c
b10 ""
b100 #"
b10000000100101 V
b10000000100101 i
b10000000100101 j
b10000000100101 ~
b10000000100101 h
b101 !
b101 ,
b101 2
b101 9
b101 R
b101 f
b101 }
b10000 Y
b10000 t
b10000 u
b111000100010000000100101 /
b111000100010000000100101 5
b111000100010000000100101 6
b111000100010000000100101 O
b11 4
b1000000010100100 [
b1000000010100100 q
b1000000010100100 s
b10000 X
b10000 m
b10000 o
b10000 r
b1100 .
b1100 =
b1100 \
b1100 n
b1100 y
1%
#301
b111000100010000000100101 &
#350
0%
#351
b101 *
#400
b0 B
b0 G
b0 J
b0 N
b0 ^
b100 W
b100 d
b100 |
b100 #
b100 0
b100 3
b100 A
b100 ]
b100 a
b100 z
b111 S
b111 _
b111 !"
b1100 T
b1100 `
b1100 g
b111 !
b111 ,
b111 2
b111 9
b111 R
b111 f
b111 }
b101 Q
b101 e
b101 $"
b1010000010010000 U
b1010000010010000 k
b1010000010010000 p
b10100 Z
b10100 w
b10100 x
b100100 C
b100100 H
b1100100001010000010010000 v
b11 b
b100 c
b100 ""
b101 #"
b10100000100100 V
b10100000100100 i
b10100000100100 j
b10100000100100 ~
b10100000100100 h
b10100 Y
b10100 t
b10100 u
b11001000010100000100100 /
b11001000010100000100100 5
b11001000010100000100100 6
b11001000010100000100100 O
b100 4
b1010000010100100 [
b1010000010100100 q
b1010000010100100 s
b10100 X
b10100 m
b10100 o
b10100 r
b10000 .
b10000 =
b10000 \
b10000 n
b10000 y
1%
#401
b11001000010100000100100 &
#450
0%
#451
b110 *
#500
b1011 W
b1011 d
b1011 |
b1011 #
b1011 0
b1011 3
b1011 A
b1011 ]
b1011 a
b1011 z
b10 B
b10 G
b10 J
b10 N
b10 ^
b100 T
b100 `
b100 g
b1010000010000000 U
b1010000010000000 k
b1010000010000000 p
b11000 Z
b11000 w
b11000 x
b100000 C
b100000 H
b10100100001010000010000000 v
b101 b
b10100000100000 V
b10100000100000 i
b10100000100000 j
b10100000100000 ~
b10100000100000 h
b11000 Y
b11000 t
b11000 u
b101001000010100000100000 /
b101001000010100000100000 5
b101001000010100000100000 6
b101001000010100000100000 O
b101 4
b1010000010011000 [
b1010000010011000 q
b1010000010011000 s
b11000 X
b11000 m
b11000 o
b11000 r
b10100 .
b10100 =
b10100 \
b10100 n
b10100 y
1%
#501
b101001000010100000100000 &
#550
0%
#551
b111 *
#600
0:
0;
1E
b1 F
b1 I
b1 L
b100001 M
b110 B
b110 G
b110 J
b110 N
b110 ^
b11 S
b11 _
b11 !"
b1000 W
b1000 d
b1000 |
b11 !
b11 ,
b11 2
b11 9
b11 R
b11 f
b11 }
b111 Q
b111 e
b111 $"
b101000 U
b101000 k
b101000 p
b1000 #
b1000 0
b1000 3
b1000 A
b1000 ]
b1000 a
b1000 z
b11100 Z
b11100 w
b11100 x
b100 D
b100 K
b1010 C
b1010 H
b10100111000000000000101000 v
b111 c
b111 ""
b0 #"
b1010 V
b1010 i
b1010 j
b1010 ~
b1010 h
b1011 T
b1011 `
b1011 g
b11100 Y
b11100 t
b11100 u
b10000101001110000000000001010 /
b10000101001110000000000001010 5
b10000101001110000000000001010 6
b10000101001110000000000001010 O
b110 4
b1000100 [
b1000100 q
b1000100 s
b11100 X
b11100 m
b11100 o
b11100 r
b11000 .
b11000 =
b11000 \
b11000 n
b11000 y
1%
#601
b10000101001110000000000001010 &
#650
0%
#651
b1000 *
#700
b111 B
b111 G
b111 J
b111 N
b111 ^
1:
1;
0E
b10 F
b10 I
b10 L
b110000010 M
b0 W
b0 d
b0 |
b0 #
b0 0
b0 3
b0 A
b0 ]
b0 a
b0 z
b111 S
b111 _
b111 !"
b1100 T
b1100 `
b1100 g
b111 !
b111 ,
b111 2
b111 9
b111 R
b111 f
b111 }
b100 Q
b100 e
b100 $"
b1000000010101000 U
b1000000010101000 k
b1000000010101000 p
b100000 Z
b100000 w
b100000 x
b0 D
b0 K
b101010 C
b101010 H
b1100100001000000010101000 v
b11 b
b100 c
b100 ""
b100 #"
b10000000101010 V
b10000000101010 i
b10000000101010 j
b10000000101010 ~
b10000000101010 h
b100000 Y
b100000 t
b100000 u
b11001000010000000101010 /
b11001000010000000101010 5
b11001000010000000101010 6
b11001000010000000101010 O
b111 4
b1000000011001000 [
b1000000011001000 q
b1000000011001000 s
b100000 X
b100000 m
b100000 o
b100000 r
b11100 .
b11100 =
b11100 \
b11100 n
b11100 y
1%
#701
b11001000010000000101010 &
#750
0%
#751
b1001 *
#800
1<
18
0:
0;
1E
b1 F
b1 I
b1 L
b100001 M
b110 B
b110 G
b110 J
b110 N
b110 ^
b0 T
b0 `
b0 g
b0 Q
b0 e
b0 $"
b100 U
b100 k
b100 p
b0 S
b0 _
b0 !"
b101000 Z
b101000 w
b101000 x
b100 D
b100 K
b1 C
b1 H
b10000000000000000000000100 v
b100 b
b0 c
b0 ""
b0 #"
b1 V
b1 i
b1 j
b1 ~
b1 h
b0 !
b0 ,
b0 2
b0 9
b0 R
b0 f
b0 }
b101000 Y
b101000 t
b101000 u
b10000100000000000000000000001 /
b10000100000000000000000000001 5
b10000100000000000000000000001 6
b10000100000000000000000000001 O
b1000 4
b101000 [
b101000 q
b101000 s
b100100 X
b100100 m
b100100 o
b100100 r
b100000 .
b100000 =
b100000 \
b100000 n
b100000 y
1%
#801
b10000100000000000000000000001 &
#850
0%
#851
b1010 *
#900
b111 B
b111 G
b111 J
b111 N
b111 ^
1:
1;
0E
b10 F
b10 I
b10 L
b110000010 M
0<
b1 W
b1 d
b1 |
08
b1 #
b1 0
b1 3
b1 A
b1 ]
b1 a
b1 z
b101 S
b101 _
b101 !"
b11 T
b11 `
b11 g
b101 !
b101 ,
b101 2
b101 9
b101 R
b101 f
b101 }
b100 Q
b100 e
b100 $"
b1000000010101000 U
b1000000010101000 k
b1000000010101000 p
b101100 Z
b101100 w
b101100 x
b0 D
b0 K
b101010 C
b101010 H
b11100010001000000010101000 v
b111 b
b10 c
b10 ""
b100 #"
b10000000101010 V
b10000000101010 i
b10000000101010 j
b10000000101010 ~
b10000000101010 h
b101100 Y
b101100 t
b101100 u
b111000100010000000101010 /
b111000100010000000101010 5
b111000100010000000101010 6
b111000100010000000101010 O
b1010 4
b1000000011010100 [
b1000000011010100 q
b1000000011010100 s
b101100 X
b101100 m
b101100 o
b101100 r
b101000 .
b101000 =
b101000 \
b101000 n
b101000 y
1%
#901
b111000100010000000101010 &
#950
0%
#951
b1011 *
#1000
b1100 W
b1100 d
b1100 |
b1100 #
b1100 0
b1100 3
b1100 A
b1100 ]
b1100 a
b1100 z
b10 B
b10 G
b10 J
b10 N
b10 ^
b1011 S
b1011 _
b1011 !"
b1 T
b1 `
b1 g
b1011 !
b1011 ,
b1011 2
b1011 9
b1011 R
b1011 f
b1011 }
b111 Q
b111 e
b111 $"
b1110000010000000 U
b1110000010000000 k
b1110000010000000 p
b110000 Z
b110000 w
b110000 x
b100000 C
b100000 H
b10000101001110000010000000 v
b100 b
b101 c
b101 ""
b111 #"
b11100000100000 V
b11100000100000 i
b11100000100000 j
b11100000100000 ~
b11100000100000 h
b110000 Y
b110000 t
b110000 u
b100001010011100000100000 /
b100001010011100000100000 5
b100001010011100000100000 6
b100001010011100000100000 O
b1011 4
b1110000010110000 [
b1110000010110000 q
b1110000010110000 s
b110000 X
b110000 m
b110000 o
b110000 r
b101100 .
b101100 =
b101100 \
b101100 n
b101100 y
1%
#1001
b100001010011100000100000 &
#1050
0%
#1051
b1100 *
#1100
b110 B
b110 G
b110 J
b110 N
b110 ^
b111 W
b111 d
b111 |
b111 #
b111 0
b111 3
b111 A
b111 ]
b111 a
b111 z
b101 S
b101 _
b101 !"
b1100 T
b1100 `
b1100 g
b101 !
b101 ,
b101 2
b101 9
b101 R
b101 f
b101 }
b1110000010001000 U
b1110000010001000 k
b1110000010001000 p
b110100 Z
b110100 w
b110100 x
b100010 C
b100010 H
b11100010001110000010001000 v
b111 b
b10 c
b10 ""
b11100000100010 V
b11100000100010 i
b11100000100010 j
b11100000100010 ~
b11100000100010 h
b110100 Y
b110100 t
b110100 u
b111000100011100000100010 /
b111000100011100000100010 5
b111000100011100000100010 6
b111000100011100000100010 O
b1100 4
b1110000010111100 [
b1110000010111100 q
b1110000010111100 s
b110100 X
b110100 m
b110100 o
b110100 r
b110000 .
b110000 =
b110000 \
b110000 n
b110000 y
1%
#1101
b111000100011100000100010 &
#1150
0%
#1151
b1101 *
#1200
0:
0;
1@
1"
b0 F
b0 I
b0 L
b1010000 M
b10 B
b10 G
b10 J
b10 N
b10 ^
b1000100 S
b1000100 _
b1000100 !"
b1010000 W
b1010000 d
b1010000 |
b111 !
b111 ,
b111 2
b111 9
b111 R
b111 f
b111 }
b111 Q
b111 e
b111 $"
b100010000 U
b100010000 k
b100010000 p
b1010000 #
b1010000 0
b1010000 3
b1010000 A
b1010000 ]
b1010000 a
b1010000 z
b111000 Z
b111000 w
b111000 x
b101011 D
b101011 K
b100 C
b100 H
b1100111000000000100010000 v
b11 b
b111 c
b111 ""
b0 #"
b1000100 V
b1000100 i
b1000100 j
b1000100 ~
b1000100 h
b1100 T
b1100 `
b1100 g
b111000 Y
b111000 t
b111000 u
b10101100011001110000000001000100 /
b10101100011001110000000001000100 5
b10101100011001110000000001000100 6
b10101100011001110000000001000100 O
b1101 4
b101001000 [
b101001000 q
b101001000 s
b111000 X
b111000 m
b111000 o
b111000 r
b110100 .
b110100 =
b110100 \
b110100 n
b110100 y
1%
#1201
b10101100011001110000000001000100 &
#1250
0%
#1251
b1110 *
#1300
b111 W
b111 d
b111 |
1:
0"
1>
b101001000 M
b0 T
b0 `
b0 g
b101 !
b101 ,
b101 2
b101 9
b101 R
b101 f
b101 }
b10 Q
b10 e
b10 $"
b101000000 U
b101000000 k
b101000000 p
b1010000 S
b1010000 _
b1010000 !"
b111100 Z
b111100 w
b111100 x
b100011 D
b100011 K
b10000 C
b10000 H
b10000000000101000000 v
b0 b
b10 c
b10 ""
b1010000 V
b1010000 i
b1010000 j
b1010000 ~
b1010000 h
b111100 Y
b111100 t
b111100 u
b10001100000000100000000001010000 /
b10001100000000100000000001010000 5
b10001100000000100000000001010000 6
b10001100000000100000000001010000 O
b1110 4
b111 -
b111 1
b111 7
b111 P
b111 {
b101111100 [
b101111100 q
b101111100 s
b111100 X
b111100 m
b111100 o
b111100 r
b111000 .
b111000 =
b111000 \
b111000 n
b111000 y
1%
#1301
b10001100000000100000000001010000 &
#1350
0%
#1351
b1111 *
#1400
18
0:
0@
0>
1?
b100 M
b0 W
b0 d
b0 |
bx -
bx 1
bx 7
bx P
bx {
b0 #
b0 0
b0 3
b0 A
b0 ]
b0 a
b0 z
b0 Q
b0 e
b0 $"
b1000100 U
b1000100 k
b1000100 p
b0 S
b0 _
b0 !"
b1000100 Z
b1000100 w
b1000100 x
b10 D
b10 K
b10001 C
b10001 H
b1000100 v
b0 c
b0 ""
b10001 V
b10001 i
b10001 j
b10001 ~
b10001 h
b0 !
b0 ,
b0 2
b0 9
b0 R
b0 f
b0 }
b1000000 Y
b1000000 t
b1000000 u
b1000000000000000000000010001 /
b1000000000000000000000010001 5
b1000000000000000000000010001 6
b1000000000000000000000010001 O
b1111 4
b10000100 [
b10000100 q
b10000100 s
b1000000 X
b1000000 m
b1000000 o
b1000000 r
b111100 .
b111100 =
b111100 \
b111100 n
b111100 y
1%
#1401
b1000000000000000000000010001 &
#1450
0%
#1451
b10000 *
#1500
1@
1"
0?
b1010000 M
b1010100 W
b1010100 d
b1010100 |
08
b1010100 #
b1010100 0
b1010100 3
b1010100 A
b1010100 ]
b1010100 a
b1010100 z
b1010100 S
b1010100 _
b1010100 !"
b1001000 Z
b1001000 w
b1001000 x
b111 !
b111 ,
b111 2
b111 9
b111 R
b111 f
b111 }
b10 Q
b10 e
b10 $"
b101010000 U
b101010000 k
b101010000 p
b101011 D
b101011 K
b10100 C
b10100 H
b10000000000101010000 v
b10 c
b10 ""
b1010100 V
b1010100 i
b1010100 j
b1010100 ~
b1010100 h
b1001000 Y
b1001000 t
b1001000 u
b10101100000000100000000001010100 /
b10101100000000100000000001010100 5
b10101100000000100000000001010100 6
b10101100000000100000000001010100 O
b10001 4
b110011000 [
b110011000 q
b110011000 s
b1001000 X
b1001000 m
b1001000 o
b1001000 r
b1000100 .
b1000100 =
b1000100 \
b1000100 n
b1000100 y
1%
#1501
b10101100000000100000000001010100 &
#1550
1$
1)
0%
#1551
b11111111111111111111111111111111 +
b10001 *
