verilog_code/cpe300/lab4_code/pre1/wave.vcd
$date
	Tue Sep 21 22:15:31 2021
$end
$version
	Icarus Verilog
$end
$timescale
	1ns
$end
$scope module tb $end
$var wire 1 ! Q $end
$var reg 1 " D $end
$var reg 1 # clear $end
$var reg 1 $ clk $end
$var reg 1 % set $end
$var integer 32 & idx [31:0] $end
$var integer 32 ' seed [31:0] $end
$var integer 32 ( split [31:0] $end
$scope module DUT $end
$var wire 1 $ clock $end
$var wire 1 ) d_not $end
$var wire 1 # inClr $end
$var wire 1 " inD $end
$var wire 1 % inSet $end
$var wire 1 * nand1_out $end
$var wire 1 + nand2_out $end
$var wire 1 , nand3_out $end
$var wire 1 - nand4_out $end
$var wire 1 ! outQ $end
$upscope $end
$scope task disp $end
$var reg 1 . D $end
$var reg 1 / Q $end
$var reg 1 0 clear $end
$var reg 1 1 clk $end
$var reg 1 2 qnxt $end
$var reg 1 3 set $end
$upscope $end
$upscope $end
$enddefinitions $end
#0
$dumpvars
x3
x2
x1
x0
x/
x.
1-
x,
1+
1*
x)
b110 (
b1001101 '
bx &
x%
0$
0#
x"
x!
$end
#1
1)
x-
0"
b10100010010011010101010 '
b0 &
1%
1#
#5
0!
0,
1-
0+
1$
#7
0-
1!
1,
1+
0*
0)
1"
b10000110100111001001100000100011 '
b1 &
02
10
13
0.
11
0/
#10
1*
0$
#13
1)
0"
b1010111010000101001101100001000 '
b10 &
12
1.
01
1/
#15
0!
0,
1-
0+
1$
#19
b11011101001111011000110101101001 '
b11 &
02
0.
11
0/
#20
1+
0$
#25
0-
1!
1,
0*
0)
1$
1"
b11010111111000011001001000010110 '
b100 &
01
#30
1*
0$
#31
1)
0"
b11100110001000110001100110011111 '
b101 &
12
1.
1/
#35
0!
0,
1-
0+
1$
#37
b101100000001111001011101010100 '
b0 &
02
0.
11
0/
#40
1+
0$
#43
b111100000101110111001001000101 '
b1 &
01
#45
0+
1$
#49
0-
1!
1,
1+
0*
0)
1"
b11000001110110010000001001000010 '
b10 &
11
#50
1*
0$
#55
0!
0,
1-
0+
1)
1$
0"
b1000010001001100010100011011011 '
b11 &
12
1.
01
1/
#60
1+
0$
#61
b10001011111001101011001100000 '
b100 &
02
0.
0/
#65
0+
1$
#67
b101110001110101000101011100001 '
b101 &
11
#70
1+
0$
#73
0)
0#
1"
b10001000110011111010001100101110 '
b0 &
01
#75
1!
1,
0*
1$
#79
b10111100101111010000000111010111 '
b1 &
12
00
1.
11
1/
#80
0!
0,
1*
0$
#85
0+
1)
1$
0"
b10111110010010010110010000101100 '
b10 &
02
01
0/
#90
1+
0$
#91
b1111111000001110111001100111101 '
b11 &
0.
#95
0+
1$
#97
b10001101000011100110000011011010 '
b100 &
11
#100
1+
0$
#103
b10000010010001010000010010011 '
b101 &
01
#105
0+
1$
#109
0-
1+
1!
1,
0*
0)
1#
0%
1"
b1011010111000110000110010111000 '
b0 &
11
#110
1*
0$
#115
1-
0+
1)
1$
0"
b1011100001011101000011101011001 '
b1 &
12
10
03
1.
01
1/
#120
0-
1+
0$
#121
b10110101011110101110011101000110 '
b10 &
0.
#125
1-
0+
1$
#127
b1111000011011111100000100001111 '
b11 &
02
11
#130
0-
1+
0$
#133
b11011111010110100101110000000100 '
b100 &
12
01
#135
1-
0+
1$
#139
b11001110000010111110001100110101 '
b101 &
02
11
#140
0-
1+
0$
#145
1-
0+
1$
b110 &
12
01
#150
0-
1+
0$
